<!-- Generator: Adobe Illustrator 26.3.1, SVG Export Plug-In . SVG Version: 6.00 Build 0)  -->
<svg version="1.1" id="Layer_1" xmlns="http://www.w3.org/2000/svg" xmlns:xlink="http://www.w3.org/1999/xlink" x="0px" y="0px"
	 width="44.6px" height="24px" viewBox="0 0 44.6 24" style="enable-background:new 0 0 44.6 24;" xml:space="preserve">
<g>
	<path class="st0" d="M41.7,13.7h0.2v-2.3c0-1.3-1-2.5-2.3-2.6l-2-0.2c-1-0.1-2.1-0.2-3.2-0.2V4.9c0-0.2,0.1-0.4,0.2-0.5
		c0.1-0.1,0.3-0.2,0.5-0.2h0.7V2.9h-0.7c-1.1,0-2,0.9-2,2v3.4H31l-1.1-6.9h1.3V0.2h-8.7c0,0,0,0,0,0c-1.9,0-3.6,1.4-3.9,3.2
		l-0.8,4.2h-3.4v1.2h3.2L17,10.6c-2.8,0.8-4.8,3.4-4.8,6.4c0,3.7,3,6.7,6.7,6.7c2.8,0,5.1-1.7,6.2-4.1h9c0.6,2.3,2.7,4.1,5.2,4.1
		c3,0,5.4-2.4,5.4-5.4C44.6,16.4,43.4,14.6,41.7,13.7z M29.8,14.3v1.5h-1.5v-1.5H29.8z M28.4,17h1.5v1.5h-1.5V17z M29.8,9v4.1h-2.4
		c-1-2-2.6-3.6-4.5-4.5V1.5h5.6L29.8,9z M19.7,3.7c0.2-1,1-1.9,2-2.1v6.5c-0.9-0.3-1.8-0.4-2.8-0.4c0,0,0,0,0,0h-0.1L19.7,3.7z
		 M19,22.5c-3,0-5.5-2.5-5.5-5.5s2.5-5.5,5.5-5.5c3,0,5.5,2.5,5.5,5.5S22,22.5,19,22.5z M19,10.4c-0.2,0-0.4,0-0.6,0l0.3-1.5H19
		c0,0,0,0,0,0c3.3,0,6.3,2,7.5,5l0.2,0.4h0.5v4.2h-1.6c0.1-0.5,0.2-0.9,0.2-1.4C25.7,13.4,22.7,10.4,19,10.4z M31.1,18.5V9.6h3.1
		c1.1,0,2.2,0.1,3.3,0.2l2,0.2c0.7,0.1,1.2,0.7,1.2,1.4v1.9c-0.5-0.1-0.9-0.2-1.4-0.2c-3,0-5.4,2.4-5.4,5.4c0,0,0,0,0,0.1H31.1z
		 M39.3,22.5c-2.3,0-4.1-1.8-4.1-4.1c0-2.3,1.8-4.1,4.1-4.1c2.3,0,4.1,1.8,4.1,4.1C43.4,20.7,41.5,22.5,39.3,22.5z"/>
	<path class="st0" d="M19,13.1c-2.2,0-4,1.8-4,4s1.8,4,4,4c2.2,0,4-1.8,4-4S21.2,13.1,19,13.1z M19,19.8c-1.5,0-2.8-1.2-2.8-2.8
		s1.2-2.8,2.8-2.8c1.5,0,2.8,1.2,2.8,2.8S20.5,19.8,19,19.8z"/>
	<path class="st0" d="M39.3,15.8c-1.5,0-2.7,1.2-2.7,2.7s1.2,2.7,2.7,2.7c1.5,0,2.7-1.2,2.7-2.7S40.7,15.8,39.3,15.8z M39.3,19.8
		c-0.8,0-1.4-0.6-1.4-1.4s0.6-1.4,1.4-1.4c0.8,0,1.4,0.6,1.4,1.4S40,19.8,39.3,19.8z"/>
	<rect x="32.5" y="11" class="st0" width="1.2" height="2"/>
	<rect x="35.2" y="11" class="st0" width="1.2" height="1.4"/>
	<rect x="6.1" y="7.7" class="st0" width="5.4" height="1.2"/>
	<rect y="13.7" class="st0" width="10.2" height="1.2"/>
	<rect x="4.1" y="19.2" class="st0" width="6.8" height="1.2"/>
</g>
</svg>
